country_decisions = {
	curtail_estate_noble = {
		major = yes
		potential = {
			OR = {
				has_country_flag = noble_estate_in_power
				has_country_modifier = noble_power_monarchy
				has_country_modifier = noble_power_elective_monarchy
				has_country_modifier = umera_dominance_ottoman_government
				has_country_modifier = junker_dominance_prussian_monarchy
				has_country_modifier = gentry_dominance
				has_country_modifier = bushi_power_japan
				has_country_modifier = boyar_dominance
				has_country_modifier = mamluk_amir_dominance
				has_country_modifier = amir_dominance
			}
		}
		allow = {
			stability = 1
			NOT = { num_of_rebel_armies = 1 }
			NOT = { num_of_rebel_controlled_provinces = 1 }			
			NOT = {
				estate_influence = {
					estate = estate_nobles
					influence = 60
				}				
			}
		}
		effect = {
			add_stability = -3
			add_prestige = -25
			if = {
				limit = {
					has_country_modifier = noble_power_monarchy
				}
				remove_country_modifier = noble_power_monarchy
			}
			else_if = {
				limit = {
					has_country_modifier = noble_power_elective_monarchy
				}
				remove_country_modifier = noble_power_elective_monarchy
			}
			else_if = {
				limit = {
					has_country_modifier = junker_dominance_prussian_monarchy
				}
				remove_country_modifier = junker_dominance_prussian_monarchy
			}
			else_if = {
				limit = {
					has_country_modifier = umera_dominance_ottoman_government
				}
				remove_country_modifier = umera_dominance_ottoman_government
			}
			else_if = {
				limit = {
					has_country_modifier = gentry_dominance
				}
				remove_country_modifier = gentry_dominance
			}
			else_if = {
				limit = {
					has_country_modifier = bushi_power_japan
				}
				remove_country_modifier = bushi_power_japan
			}
			else_if = {
				limit = {
					has_country_modifier = boyar_dominance
				}
				remove_country_modifier = boyar_dominance
			}
			else_if = {
				limit = {
					has_country_modifier = mamluk_amir_dominance
				}
				remove_country_modifier = mamluk_amir_dominance
			}
			else_if = {
				limit = {
					has_country_modifier = mamluk_amir_dominance
				}
				remove_country_modifier = mamluk_amir_dominance
			}
			else_if = {
				limit = {
					has_country_modifier = amir_dominance
				}
				remove_country_modifier = amir_dominance
			}
			clr_country_flag = noble_estate_in_power
		}
		ai_will_do = {
			factor = 1
		}
	}
	
	curtail_estate_church = {
		major = yes
		potential = {
			has_country_flag = church_estate_in_power
		}
		allow = {
			stability = 1
			NOT = { num_of_rebel_armies = 1 }
			NOT = { num_of_rebel_controlled_provinces = 1 }			
			NOT = {
				estate_influence = {
					estate = estate_church
					influence = 60
				}				
			}
		}
		effect = {
			add_stability = -3
			add_piety = -0.5
			add_karma = -25
			add_patriarch_authority = -0.25
			add_fervor = -25
			add_church_power = -100
			clr_country_flag = church_estate_in_power
		}
		ai_will_do = {
			factor = 1
		}
	}
	
	curtail_estate_brahmins = {
		major = yes
		potential = {
			has_country_flag = brahmin_estate_in_power
		}
		allow = {
			stability = 1
			NOT = { num_of_rebel_armies = 1 }
			NOT = { num_of_rebel_controlled_provinces = 1 }			
			NOT = {
				estate_influence = {
					estate = estate_brahmins
					influence = 60
				}				
			}
		}
		effect = {
			add_stability = -3
			add_piety = -0.5
			add_karma = -25
			add_patriarch_authority = -0.25
			add_fervor = -25
			add_church_power = -100
			clr_country_flag = brahmin_estate_in_power
		}
		ai_will_do = {
			factor = 1
		}
	}
	
	curtail_estate_burghers = {
		major = yes
		potential = {
			has_country_flag = burghers_estate_in_power
		}
		allow = {
			stability = 1
			NOT = { num_of_rebel_armies = 1 }
			NOT = { num_of_rebel_controlled_provinces = 1 }			
			NOT = {
				estate_influence = {
					estate = estate_burghers
					influence = 60
				}				
			}
		}
		effect = {
			add_stability = -3
			capital_scope = {
				add_base_tax = -1
				add_base_production = -1
			}
			clr_country_flag = burghers_estate_in_power
		}
		ai_will_do = {
			factor = 1
		}
	}
	curtail_estate_vaisyas = {
		major = yes
		potential = {
			has_country_flag = vaisyas_estate_in_power
		}
		allow = {
			stability = 1
			NOT = { num_of_rebel_armies = 1 }
			NOT = { num_of_rebel_controlled_provinces = 1 }			
			NOT = {
				estate_influence = {
					estate = estate_vaisyas
					influence = 60
				}				
			}
		}
		effect = {
			add_stability = -3
			capital_scope = {
				add_base_tax = -1
				add_base_production = -1
			}
			clr_country_flag = vaisyas_estate_in_power
		}
		ai_will_do = {
			factor = 1
		}
	}
	curtail_estate_nomadic_tribes = {
		major = yes
		potential = {
			has_country_flag = nomadic_tribes_estate_in_power
		}
		allow = {
			stability = 1
			NOT = { num_of_rebel_armies = 1 }
			NOT = { num_of_rebel_controlled_provinces = 1 }			
			NOT = {
				estate_influence = {
					estate = estate_nomadic_tribes
					influence = 60
				}				
			}
		}
		effect = {
			add_stability = -3
			capital_scope = {
				add_base_tax = -1
				add_base_production = -1
			}
			clr_country_flag = nomadic_tribes_estate_in_power
		}
		ai_will_do = {
			factor = 1
		}
	}
	curtail_estate_jains = {
		major = yes
		potential = {
			has_country_flag = jains_estate_in_power
		}
		allow = {
			stability = 1
			NOT = { num_of_rebel_armies = 1 }
			NOT = { num_of_rebel_controlled_provinces = 1 }			
			NOT = {
				estate_influence = {
					estate = estate_jains
					influence = 60
				}				
			}
		}
		effect = {
			add_stability = -3
			capital_scope = {
				add_base_tax = -1
				add_base_production = -1
			}
			clr_country_flag = jains_estate_in_power
		}
		ai_will_do = {
			factor = 1
		}
	}
	cossack_nation = {
		major = yes
		potential = {
			tag = ZAZ
			NOT = { has_reform = cossacks_reform }
			has_dlc = "The Cossacks"
		}
		allow = {
			stability = 0
			NOT = { government = dictatorship }
			NOT = { has_reform = presidential_despot_reform }
		}
		effect = {
			if = {
				limit = { NOT = { government = republic } }
				change_government_to_republic = yes
			}
			add_government_reform = cossacks_reform
		}
		ai_will_do = {
			factor = 1
		}
	}
#Anbennar
	curtail_estate_artificers = {
		major = yes
		potential = {
			has_country_flag = artificers_estate_in_power
		}
		allow = {
			stability = 1
			NOT = { num_of_rebel_armies = 1 }
			NOT = { num_of_rebel_controlled_provinces = 1 }			
			NOT = {
				estate_influence = {
					estate = estate_artificers
					influence = 60
				}				
			}
		}
		effect = {
			add_stability = -3
			add_inflation = 4
			capital_scope = {
				add_base_tax = -1
				add_base_production = -1
			}
			clr_country_flag = artificers_estate_in_power
		}
		ai_will_do = {
			factor = 1
		}
	}	
	
	curtail_estate_adventurers = {
		major = yes
		potential = {
			has_country_flag = adventurers_estate_in_power
		}
		allow = {
			stability = 1
			NOT = { num_of_rebel_armies = 1 }
			NOT = { num_of_rebel_controlled_provinces = 1 }			
			NOT = {
				estate_influence = {
					estate = estate_adventurers
					influence = 60
				}				
			}
		}
		effect = {
			add_stability = -3
			add_prestige = -25
			capital_scope = {
				add_local_autonomy = 0.5
			}
			clr_country_flag = adventurers_estate_in_power
			if = {
				limit = {
					has_country_modifier = adventurer_dominance
				}
				remove_country_modifier = adventurer_dominance
			}
		}
		ai_will_do = {
			factor = 1
		}
	}	
	
	curtail_estate_mages = {
		major = yes
		potential = {
			has_country_flag = mages_estate_in_power
		}
		allow = {
			stability = 1
			NOT = { num_of_rebel_armies = 1 }
			NOT = { num_of_rebel_controlled_provinces = 1 }			
			NOT = {
				estate_influence = {
					estate = estate_mages
					influence = 60
				}				
			}
		}
		effect = {
			add_stability = -3
			add_prestige = -25
			capital_scope = {
				add_local_autonomy = 0.5
			}
			clr_country_flag = mages_estate_in_power
			if = {
				limit = {
					has_country_modifier = mages_dominance
				}
				remove_country_modifier = mages_dominance
			}
		}
		ai_will_do = {
			factor = 1
		}
	}
	
	vampire_hideout_menu_decision = {
		major = yes
		potential = {
			has_country_flag = kill_vampires_hideout
			NOT = { has_country_flag = hideout_vampire_menu }
			any_owned_province = {
				has_province_modifier = vampire_hideout
			}
		}
		provinces_to_highlight = {
			has_province_modifier = vampire_hideout
			owned_by = ROOT
		}
		
		allow = {
			NOT = { has_spawned_rebels = vampires_nobles }
		}
		effect = {
			country_event = { id = disaster_vampire_masquerade.13 }
		}
		ai_will_do = {
			factor = 1
		}
	}
	
	vampire_plot_power_decision = {
		major = yes
		potential = {
			has_disaster = estate_vampires_install_thrall_disaster
		}
		provinces_to_highlight = {
			has_province_modifier = vampire_hideout
			owned_by = ROOT
		}
		allow = {
			always = no
		}
		effect = {
			custom_tooltip = vampire_plot_power_tooltip
		}
		ai_will_do = {
			factor = 1
		}
	}
}