country_decisions = {

	grombar_nation = { #Z50
		major = yes
		potential = {
			OR = {
				primary_culture = gray_orc
				primary_culture = half_orc
			}
			NOT = { exists = Z50 }
			normal_or_historical_nations = yes
			is_free_or_tributary_trigger = yes
			NOT = { has_country_flag = orc_nation_formed }
			capital_scope = { continent = europe }
		}
		allow = {
			has_institution = feudalism
			is_at_war = no
			num_of_owned_provinces_with = {
				value = 10
				superregion = gerudia_superregion
			}
			adm_tech = 7	#1492
		}
		effect = {
			change_tag = Z50
			if = {
				limit = { culture_group = orcish }
				change_primary_culture = gray_orc
			}
			remove_non_electors_emperors_from_empire_effect = yes
			swap_non_generic_missions = yes
			add_prestige = 25
			set_country_flag = orc_nation_formed
			clr_country_flag = knightly_order_adventurer
			country_event = { id = orcform.1 days = 1 }
			if = {
				limit = { has_custom_ideas = no }
				country_event = { id = ideagroups.1 } #Swap Ideas
			}
			set_country_flag = formed_grombar_nation
		}
		ai_will_do = {
			factor = 1
		}
		ai_importance = 400
	}
	
	khozrugan_nation = { #Z51
		major = yes
		potential = {
			OR = {
				primary_culture = green_orc
				primary_culture = gray_orc
			}
			NOT = { exists = Z51 }
			NOT = { has_country_flag = orc_nation_formed }
			any_owned_province = { region = west_castanor_region }
			normal_or_historical_nations = yes
			is_free_or_tributary_trigger = yes
			capital_scope = { continent = europe }
			OR = { 
				religion = great_dookan
				religion = corinite
				religion = regent_court 
			}
		}
		allow = {
			has_institution = feudalism
			OR = { 
				adm_tech = 8	#1505
				NOT = { religion = great_dookan }
			}
			is_at_war = no
			num_of_owned_provinces_with = {
				value = 10
				region = west_castanor_region
			}
		}
		effect = {
			change_tag = Z51
			change_primary_culture = green_orc
			remove_non_electors_emperors_from_empire_effect = yes
			swap_non_generic_missions = yes

			add_prestige = 25
			add_country_modifier = {
				name = "legacy_of_greentide_invaders_modifier"
				duration = 14600
			}
			set_country_flag = orc_nation_formed
			clr_country_flag = knightly_order_adventurer
			country_event = { id = orcform.1 days = 1 }
			if = {
				limit = { has_custom_ideas = no }
				country_event = { id = ideagroups.1 } #Swap Ideas
			}
			set_country_flag = formed_khozrugan_nation
		}
		ai_will_do = {
			factor = 1
		}
		ai_importance = 400
	}
	unguldavor_nation = { #Z52
		major = yes
		potential = {
			OR = {
				primary_culture = green_orc
				primary_culture = gray_orc
			}
			NOT = { exists = Z52 }
			NOT = { has_country_flag = orc_nation_formed }
			any_owned_province = { region = inner_castanor_region }
			normal_or_historical_nations = yes
			is_free_or_tributary_trigger = yes
			capital_scope = { continent = europe }
			OR = { 
				religion = great_dookan
				religion = corinite
				religion = regent_court 
			}
		}
		allow = {
			has_institution = feudalism
			OR = { 
				adm_tech = 8	#1505
				NOT = { religion = great_dookan }
			}
			is_at_war = no
			num_of_owned_provinces_with = {
				value = 10
				region = inner_castanor_region
			}
		}
		effect = {
			change_tag = Z52
			change_primary_culture = green_orc
			remove_non_electors_emperors_from_empire_effect = yes
			swap_non_generic_missions = yes

			add_prestige = 25
			add_country_modifier = {
				name = "legacy_of_greentide_invaders_modifier"
				duration = 14600
			}
			set_country_flag = orc_nation_formed
			clr_country_flag = knightly_order_adventurer
			country_event = { id = orcform.1 days = 1 }
			if = {
				limit = { has_custom_ideas = no }
				country_event = { id = ideagroups.1 } #Swap Ideas
			}
			set_country_flag = formed_unguldavor_nation
		}
		ai_will_do = {
			factor = 1
		}
		ai_importance = 400
	}

	barumand_nation = { #Z53
		major = yes
		potential = {
			OR = {
				primary_culture = green_orc
				primary_culture = gray_orc
			}
			NOT = { has_country_flag = orc_nation_formed }
			NOT = { exists = Z53 }
			any_owned_province = { region = south_castanor_region }
			normal_or_historical_nations = yes
			is_free_or_tributary_trigger = yes
			capital_scope = { continent = europe }
			OR = { 
				religion = great_dookan
				religion = corinite
				religion = regent_court 
			}
		}
		allow = {
			has_institution = feudalism
			OR = { 
				adm_tech = 8	#1505
				NOT = { religion = great_dookan }
			}
			is_at_war = no
			num_of_owned_provinces_with = {
				value = 10
				region = south_castanor_region
			}
		}
		effect = {
			change_tag = Z53
			change_primary_culture = green_orc
			remove_non_electors_emperors_from_empire_effect = yes
			swap_non_generic_missions = yes

			add_prestige = 25
			add_country_modifier = {
				name = "legacy_of_greentide_invaders_modifier"
				duration = 14600
			}
			set_country_flag = orc_nation_formed
			clr_country_flag = knightly_order_adventurer
			country_event = { id = orcform.1 days = 1 }
			if = {
				limit = { has_custom_ideas = no }
				country_event = { id = ideagroups.1 } #Swap Ideas
			}
			set_country_flag = formed_barumand_nation
		}
		ai_will_do = {
			factor = 1
		}
		ai_importance = 400
	}
	
	
	orc_change_religion_corinite = {
		major = yes
		potential = {
			culture_group = orcish
			religion = great_dookan
			is_religion_enabled = corinite
			is_free_or_tributary_trigger = yes
			is_force_converted = no
			capital_scope = { continent = europe }
		}
		allow = {
			stability = 2
		}
		effect = {
			add_stability = -3
			change_religion = corinite
			add_country_modifier = {
				name = "orc_conversion_zeal"
				duration = 9125
			}
			capital_scope = {
				change_religion = corinite
			}
		}
		ai_will_do = {
			factor = 1
			modifier = {
				capital_scope = {
					region = west_castanor_region
				}
				factor = 0.1
			}
			modifier = {
				tag = Z51
				factor = 0
			}
		}
	}
}